{
	"appName" : {
		"message" : "Mind The Word",
		"description": "The title of the application, displayed in the web store."
	},
	"appDesc" : {
		"message": "Learn languages while browsing the Internet!",
		"description": "The description of the application, displayed in the web store."
	},
	"selectTranslationHeading" : {
		"message": "Select Translation Configuration", 
		"description": "heading over list of translations"
	},
	"newTranslationHeading" : {
		"message": "Create New Translation Configuration", 
		"description": "heading over new translation form"
	},
	"attentionMessage" : {
		"message": "<b>Attention:</b> Google Translate is <i>not free</i>. Yandex is <i>recommended</i>!"
	},
	"translationSettings" : {
		"message": "Translation Settings"
	},
	"adjustmentsDescription" : {
		"message": "Format the translated words according to the following <a href='http://lesliefranke.com/files/reference/csscheatsheet.html' target='_blank'>CSS </a>property-value pairs:"
	}, 
	"blacklistingWebsitesDescription" : {
		"message" : "Do not translate the following websites: "
	}, 
	"blacklistingWordsDescription" : {
		"message" : "Do not translate the following words: "
	}, 
	"userDefinedTranslations" : {
		"message" : "Use the following user-defined translations:"
	},  
	"userLimitedTranslationsCheckbox" : {
		"message" : "This will limit translations to only those provided in the user-defined dictionary. Words not in the dictionary will not be translated."
	}, 
	"basicOptionsTab" : {
		"message" : "Basic Options "
	}, 
	"advancedOptionsTab" : {
		"message" : "Advanced Options "
	}, 
	"contributionsTab" : {
		"message" : "Contributions"
	}, 
	"translationPatterns" : {
		"message" : "Translation Patterns"
	}, 
	"translatorKeys" : {
		"message" : "Translator Keys"
	},
	"createNewPattern" : {
		"message" : "Create a New Pattern"
	},
	"yandexKey" : {
		"message" : "Yandex Key"
	},
	"bingKey" : {
		"message" : "Bing Key"
	},
	"bingClientID" : {
		"message" : "Bing Client ID"
	},
	"bingClientSecret" : {
		"message" : "Bing Client Secret"
	},
	"googleKey" : {
		"message" : "Google Key"
	},
	"createNewPattern" : {
		"message" : "Create a New Pattern"
	},
	"create" : {
		"message" : "Create"
	},
	"add" : {	
		"message" : "Add"
	},
	"blacklistWebsites" : {	
		"message" : "Blacklist Websites"
	},
	"blacklistWords" : {	
		"message" : "Blacklist Words"
	},
	"automaticBlacklisting" : {	
		"message" : "Automatic Blacklisting"
	},
	"savedTranslations" : {	
		"message" : "Saved Translations"
	},
	"difficultyBuckets" : {	
		"message" : "Difficulty Buckets"
	},
	"noSavedTranslations" : {	
		"message" : "No Saved Translations"
	},
	"noWordsLearnt" : {	
		"message" : "No Words Learnt"
	},
	"emptyDifficultyBuckets" : {	
		"message" : "Empty Difficulty Buckets"
	},
	"colorSettings" : {	
		"message" : "Color Settings"
	},
	"wordConfiguration" : {	
		"message" : "Word Configuration"
	},
	"userDefinedTranslations" : {	
		"message" : "User Defined Translations"
	},
	"playbackSettings" : {	
		"message" : "Playback Settings"
	},
	"backup" : {	
		"message" : "Backup"
	},
	"restore" : {	
		"message" : "Restore"
	},
	"dangerZone" : {	
		"message" : "Danger Zone"
	},
	"patternWiseStats" : {	
		"message" : "Pattern wise stats"
	},
	"letsTalkNumbers" : {	
		"message" : "Let's talk numbers!"
	},
	"chooseCorrectTranslations" : {	
		"message" : "Choose The Correct Translations"
	},
	"contribute" : {	
		"message" : "Contribute"
	},
	"support" : {	
		"message" : "Support"
	},
	"translation" : {	
		"message" : "Translation"
	},
	"blacklist" : {	
		"message" : "Blacklist"
	},
	"learning" : {	
		"message" : "Learning"
	},
	"advanced" : {	
		"message" : "Advanced"
	},
	"statistics" : {	
		"message" : "Statistics"
	},
	"quiz" : {	
		"message" : "Quiz"
	},
    "insertKeys": {
        "message": "Please insert the keys for the translation services that you would like to use and then create a new translation pattern below."
    },
    "and": {
        "message": "and"
    },
    "requireKeys": {
        "message": "require keys"
    },
    "translationParagraph1": {
        "message": "They use the keys to identify users, in order to limit the amount of translations that each user can request per month. If the limit is reached, they stop working temporarily. As the limit is high, it is unlikely to be reached."
    },
    "translationParagraph2": {
        "message": "Please add keys for the translators you would like to use below."
    },
    "note": {
        "message": "Note"
    },
    "needHelp1": {
        "message": "If you need help with getting a key, watch the "
    },
    "needHelp2": {
        "message": "on YouTube. You can watch other tutorials"
    },
    "needHelp3": {
        "message": " here"
    },
    "use": {
        "message": "Use"
    },
    "toTranslate": {
        "message": "to translate"
    },
    "percentOfall": {
        "message": "percent of all"
    },
    "wordsInto": {
        "message": "words into"
    },
    "create": {
        "message": "Create"
    },
    "oneWordPerSentence" : {
        "message": "One Word Per Sentence"
    },
    "userDefinedOnly": {
        "message": "User Defined Only"
    },
    "doNotTranslate": {
        "message": "Do Not Translate"
    },
    "videoTutorial": {
        "message": "Video Tutorial"
    },
    "restoreKeys": {
        "message": "Restore Keys"
    },
    "getFreeYandexKey": {
        "message": "Get Free Yandex Key"
    },
    "getFreeBingKey": {
        "message": "Get Free Bing Key"
    },
    "getPaidGoogleKey": {
        "message": "Get Paid Google Key"
    },
    "pleaseInsertkey": {
        "message": "Please insert a key"
    },
    "contribute": {
        "message": "Contribute"
    },
    "fixBugsPart1": {
        "message": "Fix bugs and implement new features for this free open-source extension. Clone our"
    },
    "fixBugsPart2": {
        "message": "scholarships"
    },
    "fixBugsPart3": {
        "message": "are available."
    },
    "mail": {
        "message": "You can also mail us at"
    },
    "donateToSupport": {
        "message": "If you want to donate to support development of this and other free extensions."
    },
    "noTranslateWords": {
        "message": "No Translated Words"
    },
    "translateWordstoQuiz": {
        "message": "Translate words to take a quiz from"
    },
    "generateNewQuiz": {
        "message": "Generate New Quiz"
    },
    "wordsTranslated": {
        "message": " words translated so far!"
    },
    "resetCount": {
        "message": " Reset Count"
    },
    "wordsTranslatedFrom": {
        "message": "words have been translated from"
    },
    "translate": {
        "message": "translation"
    },
    "wordsAnd": {
        "message": "words and"
    },
    "charactersTranslateWith": {
        "message": "characters have been translated with"
    },
    "during": {
        "message": "during"
    },
    "numberOf": {
        "message": "Number of "
    },
    "numberOfWordsIn": {
        "message": "Number of words in "
    },
    "blacklistedWebsites": {
        "message": "blacklisted websites"
    },
    "blacklistedWords": {
        "message": "blacklisted words"
    },
    "difficultyBuckets": {
        "message": "Difficulty buckets"
    },
    "learntWords": {
        "message": "Learnt words"
    },
    "userDefinedTranslations": {
        "message": "user defined translations"
    },
    "backupConfiguration": {
        "message": "Backup Configuration"
    },
    "backupAll": {
        "message": "Backup all your settings and keys in a file."
    },
    "backupButton": {
        "message": "Backup"
    },
    "backupKeys": {
        "message": "Backup Keys"
    },
    "backupAllKeysInAFile": {
        "message": "Backup all your keys in a file."
    },
    "restoreAllKeysFromAFile": {
        "message": "Restore all your keys from a file."
    },
    "resetConfiguration": {
        "message": "Reset Configuration"
    },
    "resetConfigurationDescription": {
        "message": "This action will reset all the options to default. You will lose all your settings, saved data and keys. This action is irreversible."
    },
    "delete": {
        "message": "Delete"
    },
    "deleteKeys": {
        "message": "Delete Keys"
    },
    "deleteDescription": {
        "message": "This action will delete all you translator keys. This is an irreversible action."
    },
    "confirmReset": {
        "message": "Confirm Reset"
    },
    "confirmResetBody": {
        "message": "Are you sure you want to reset all the data. Please create a backup if you want to restore your data in the future."
    },
    "cancel": {
        "message": "Cancel"
    },
    "yes": {
        "message": "Yes"
    },
    "confirmDelete": {
        "message": "Confirm Delete"
    },
    "confirmDeleteBody": {
        "message": "Are you sure you want to remove all the keys. Please create a backup if you want to restore your keys in the future."
    },
    "textColor": {
        "message": "Text Color"
    },
    "backgroundColor": {
        "message": "Background Color"
    },
    "awesome": {
        "message": "awesome"
    },
    "haveBeenReservedForWordsIn": {
        "message": "have been reserved for words in"
    },
    "easy": {
        "message": " easy"
    },
    "normal": {
        "message": " normal"
    },
    "hard": {
        "message": " hard "
    },
    "minimumWordLength": {
        "message": "Minimum word length"
    },
    "translatedSeq": {
        "message": "Translated sequences should have at least"
    },
    "andAtMost": {
        "message": "and at most"
    },
    "words": {
        "message": "words"
    },
    "original": {
        "message": "Original"
    },
    "translated": {
        "message": "Translated"
    },
    "videoTutorial": {
        "message": "Video Tutorial"
    },
    "voiceName": {
        "message": "Voice Name"
    },
    "defaultVolumeLevel": {
        "message": "Default Volume Level"
    },
    "speechRate": {
        "message": "Speech rate"
    },
    "pitch": {
        "message": "Pitch"
    },
    "noBlacklistedWebsites": {
        "message": " No Blacklisted Websites"
    },
    "noBlacklistedWords": {
        "message": "No Blacklisted Words"
    },
    "on": {
        "message": "On"
    },
    "off": {
        "message": "Off"
    },
    "maxWordToggles": {
        "message": "Maximum Word Toggles"
    },
    "maxActivationsToggles": {
        "message": "Maximum Activation Toggles"
    }
}




